{
    "blender":{
        "X": 0.54,
        "Y": -3.32,
        "Z": 0,
        "Size": 0.45
    },
    "maniaplanet":{
        "X": 500,
        "Y": 18,
        "Z": 231.5,
        "Size": 4
    },
    "general": {
        "FPS": 30,
        "Lens angle": 30,
        "Start": 0,
        "End": 1,
        "Keyframe interval": 0.1
    }
}